%YAML 1.1
%TAG !u! tag:unity3d.com,2011:
--- !u!114 &-8149789301473438807
MonoBehaviour:
  m_ObjectHideFlags: 1
  m_CorrespondingSourceObject: {fileID: 0}
  m_PrefabInstance: {fileID: 0}
  m_PrefabAsset: {fileID: 0}
  m_GameObject: {fileID: 0}
  m_Enabled: 1
  m_EditorHideFlags: 0
  m_Script: {fileID: 11500000, guid: adcbb2b023fd42a7837155ef625ceea3, type: 3}
  m_Name: ThemeNode
  m_EditorClassIdentifier: 
  ErrorNodeNameIsEmpty: 0
  ErrorDuplicateNameFoundInGraph: 0
  m_inputSockets:
  - m_connectionMode: 1
    m_connections:
    - m_inputConnectionPoint: {x: 202, y: 4}
      m_outputConnectionPoint: {x: -2, y: 4}
      m_id: be830213-84aa-44af-8446-4fd9a66d36f7
      m_inputNodeId: 86390316-a283-4119-88fc-dc305edf0db9
      m_inputSocketId: 8254094b-f121-4976-9b63-4577b8d13c01
      m_outputNodeId: 1009b0f7-cb08-4ff4-a533-da8b9b3cbed4
      m_outputSocketId: 53562652-61b6-4e45-a2dd-c36389ca90f5
    m_connectionPoints:
    - {x: -2, y: 4}
    - {x: 202, y: 4}
    m_direction: 0
    m_canBeDeleted: 0
    m_canBeReordered: 0
    m_curveModifier: 0
    m_height: 24
    m_width: 216
    m_x: 0
    m_y: 38
    m_id: 8254094b-f121-4976-9b63-4577b8d13c01
    m_nodeId: 86390316-a283-4119-88fc-dc305edf0db9
    m_socketName: InputSocket_0
    m_value: '{}'
    m_valueTypeQualifiedName: Doozy.Engine.Nody.Connections.PassthroughConnection,
      Assembly-CSharp, Version=0.0.0.0, Culture=neutral, PublicKeyToken=null
  m_outputSockets:
  - m_connectionMode: 0
    m_connections: []
    m_connectionPoints:
    - {x: -2, y: 4}
    - {x: 202, y: 4}
    m_direction: 1
    m_canBeDeleted: 0
    m_canBeReordered: 0
    m_curveModifier: 0
    m_height: 24
    m_width: 216
    m_x: 0
    m_y: 62
    m_id: c13ce4f8-5e06-4255-8db8-f639e60e49b5
    m_nodeId: 86390316-a283-4119-88fc-dc305edf0db9
    m_socketName: OutputSocket_0
    m_value: '{}'
    m_valueTypeQualifiedName: Doozy.Engine.Nody.Connections.PassthroughConnection,
      Assembly-CSharp, Version=0.0.0.0, Culture=neutral, PublicKeyToken=null
  m_nodeType: 4
  m_allowDuplicateNodeName: 1
  m_allowEmptyNodeName: 1
  m_canBeDeleted: 1
  m_debugMode: 0
  m_useFixedUpdate: 0
  m_useLateUpdate: 0
  m_useUpdate: 0
  m_height: 156
  m_width: 216
  m_x: -48
  m_y: 900
  m_minimumInputSocketsCount: 1
  m_minimumOutputSocketsCount: 1
  m_graphId: 386b2cfa-61b2-472e-9a0f-47db15394f27
  m_id: 86390316-a283-4119-88fc-dc305edf0db9
  m_name: Theme Node
  m_notes: 
  ThemeIdSerializedGuid: 4970eed67e2b864e9e16a851bb1066cb
  VariantIdSerializedGuid: b0c67e0af0b44d42b73e052255bd0094
--- !u!114 &-6854074222688119880
MonoBehaviour:
  m_ObjectHideFlags: 1
  m_CorrespondingSourceObject: {fileID: 0}
  m_PrefabInstance: {fileID: 0}
  m_PrefabAsset: {fileID: 0}
  m_GameObject: {fileID: 0}
  m_Enabled: 1
  m_EditorHideFlags: 0
  m_Script: {fileID: 11500000, guid: ea08aeacce5dcd746b2f00e10a995b72, type: 3}
  m_Name: PortalNode
  m_EditorClassIdentifier: 
  ErrorNodeNameIsEmpty: 0
  ErrorDuplicateNameFoundInGraph: 0
  m_inputSockets: []
  m_outputSockets:
  - m_connectionMode: 0
    m_connections:
    - m_inputConnectionPoint: {x: 202, y: 4}
      m_outputConnectionPoint: {x: -2, y: 4}
      m_id: be830213-84aa-44af-8446-4fd9a66d36f7
      m_inputNodeId: 86390316-a283-4119-88fc-dc305edf0db9
      m_inputSocketId: 8254094b-f121-4976-9b63-4577b8d13c01
      m_outputNodeId: 1009b0f7-cb08-4ff4-a533-da8b9b3cbed4
      m_outputSocketId: 53562652-61b6-4e45-a2dd-c36389ca90f5
    m_connectionPoints:
    - {x: -2, y: 4}
    - {x: 202, y: 4}
    m_direction: 1
    m_canBeDeleted: 0
    m_canBeReordered: 0
    m_curveModifier: 0
    m_height: 24
    m_width: 216
    m_x: 0
    m_y: 38
    m_id: 53562652-61b6-4e45-a2dd-c36389ca90f5
    m_nodeId: 1009b0f7-cb08-4ff4-a533-da8b9b3cbed4
    m_socketName: OutputSocket_0
    m_value: '{}'
    m_valueTypeQualifiedName: Doozy.Engine.Nody.Connections.PassthroughConnection,
      Assembly-CSharp, Version=0.0.0.0, Culture=neutral, PublicKeyToken=null
  m_nodeType: 5
  m_allowDuplicateNodeName: 0
  m_allowEmptyNodeName: 0
  m_canBeDeleted: 1
  m_debugMode: 0
  m_useFixedUpdate: 0
  m_useLateUpdate: 0
  m_useUpdate: 0
  m_height: 132
  m_width: 216
  m_x: 288
  m_y: 900
  m_minimumInputSocketsCount: 1
  m_minimumOutputSocketsCount: 1
  m_graphId: 386b2cfa-61b2-472e-9a0f-47db15394f27
  m_id: 1009b0f7-cb08-4ff4-a533-da8b9b3cbed4
  m_name: 5 GameEvent
  m_notes: 
  ErrorNotListeningForAnyGameEvent: 0
  m_gameEvent: 5
  ListenFor: 0
  AnyValue: 0
  UIViewTriggerAction: 1
  ViewCategory: General
  ViewName: Unnamed
  UIButtonTriggerAction: 0
  ButtonCategory: General
  ButtonName: Unnamed
  UIDrawerTriggerAction: 0
  DrawerName: Unnamed
  CustomDrawerName: 0
  SwitchBackMode: 0
--- !u!114 &-6174307195788869077
MonoBehaviour:
  m_ObjectHideFlags: 1
  m_CorrespondingSourceObject: {fileID: 0}
  m_PrefabInstance: {fileID: 0}
  m_PrefabAsset: {fileID: 0}
  m_GameObject: {fileID: 0}
  m_Enabled: 1
  m_EditorHideFlags: 0
  m_Script: {fileID: 11500000, guid: adcbb2b023fd42a7837155ef625ceea3, type: 3}
  m_Name: ThemeNode
  m_EditorClassIdentifier: 
  ErrorNodeNameIsEmpty: 0
  ErrorDuplicateNameFoundInGraph: 0
  m_inputSockets:
  - m_connectionMode: 1
    m_connections:
    - m_inputConnectionPoint: {x: 202, y: 4}
      m_outputConnectionPoint: {x: -2, y: 4}
      m_id: 8e427989-0014-4c04-a994-a14d9af4d65a
      m_inputNodeId: 7229f657-6244-453a-96fd-b4fe4e30d217
      m_inputSocketId: 876c26a2-8b28-411c-ae5e-35984b4580a9
      m_outputNodeId: 4628b93f-a238-4557-9b9d-173ce6be1b46
      m_outputSocketId: f4400e09-73e4-4830-8056-5a3479d5ce18
    m_connectionPoints:
    - {x: -2, y: 4}
    - {x: 202, y: 4}
    m_direction: 0
    m_canBeDeleted: 0
    m_canBeReordered: 0
    m_curveModifier: 0
    m_height: 24
    m_width: 216
    m_x: 0
    m_y: 38
    m_id: 876c26a2-8b28-411c-ae5e-35984b4580a9
    m_nodeId: 7229f657-6244-453a-96fd-b4fe4e30d217
    m_socketName: InputSocket_0
    m_value: '{}'
    m_valueTypeQualifiedName: Doozy.Engine.Nody.Connections.PassthroughConnection,
      Assembly-CSharp, Version=0.0.0.0, Culture=neutral, PublicKeyToken=null
  m_outputSockets:
  - m_connectionMode: 0
    m_connections: []
    m_connectionPoints:
    - {x: -2, y: 4}
    - {x: 202, y: 4}
    m_direction: 1
    m_canBeDeleted: 0
    m_canBeReordered: 0
    m_curveModifier: 0
    m_height: 24
    m_width: 216
    m_x: 0
    m_y: 62
    m_id: ce476b23-44dc-4057-bb48-3851ff501180
    m_nodeId: 7229f657-6244-453a-96fd-b4fe4e30d217
    m_socketName: OutputSocket_0
    m_value: '{}'
    m_valueTypeQualifiedName: Doozy.Engine.Nody.Connections.PassthroughConnection,
      Assembly-CSharp, Version=0.0.0.0, Culture=neutral, PublicKeyToken=null
  m_nodeType: 4
  m_allowDuplicateNodeName: 1
  m_allowEmptyNodeName: 1
  m_canBeDeleted: 1
  m_debugMode: 0
  m_useFixedUpdate: 0
  m_useLateUpdate: 0
  m_useUpdate: 0
  m_height: 156
  m_width: 216
  m_x: -48
  m_y: 720
  m_minimumInputSocketsCount: 1
  m_minimumOutputSocketsCount: 1
  m_graphId: 386b2cfa-61b2-472e-9a0f-47db15394f27
  m_id: 7229f657-6244-453a-96fd-b4fe4e30d217
  m_name: Theme Node
  m_notes: 
  ThemeIdSerializedGuid: 4970eed67e2b864e9e16a851bb1066cb
  VariantIdSerializedGuid: 8b24d96533a4ef42bf27e7f0682b0d30
--- !u!114 &-3587496813375270074
MonoBehaviour:
  m_ObjectHideFlags: 1
  m_CorrespondingSourceObject: {fileID: 0}
  m_PrefabInstance: {fileID: 0}
  m_PrefabAsset: {fileID: 0}
  m_GameObject: {fileID: 0}
  m_Enabled: 1
  m_EditorHideFlags: 0
  m_Script: {fileID: 11500000, guid: adcbb2b023fd42a7837155ef625ceea3, type: 3}
  m_Name: ThemeNode
  m_EditorClassIdentifier: 
  ErrorNodeNameIsEmpty: 0
  ErrorDuplicateNameFoundInGraph: 0
  m_inputSockets:
  - m_connectionMode: 1
    m_connections:
    - m_inputConnectionPoint: {x: 202, y: 4}
      m_outputConnectionPoint: {x: -2, y: 4}
      m_id: a303202e-1005-463e-be7e-513c8f5b9170
      m_inputNodeId: bb246f8a-bae4-44ab-9d7b-2e8c9e441113
      m_inputSocketId: 70e6d2ea-7a5d-41b6-b037-4d5ce76d24e4
      m_outputNodeId: 59514237-8cf3-42fc-a42b-ecb2270524c2
      m_outputSocketId: 2aa72366-1597-439d-bf81-1e4a656e04a6
    m_connectionPoints:
    - {x: -2, y: 4}
    - {x: 202, y: 4}
    m_direction: 0
    m_canBeDeleted: 0
    m_canBeReordered: 0
    m_curveModifier: 0
    m_height: 24
    m_width: 216
    m_x: 0
    m_y: 38
    m_id: 70e6d2ea-7a5d-41b6-b037-4d5ce76d24e4
    m_nodeId: bb246f8a-bae4-44ab-9d7b-2e8c9e441113
    m_socketName: InputSocket_0
    m_value: '{}'
    m_valueTypeQualifiedName: Doozy.Engine.Nody.Connections.PassthroughConnection,
      Assembly-CSharp, Version=0.0.0.0, Culture=neutral, PublicKeyToken=null
  m_outputSockets:
  - m_connectionMode: 0
    m_connections: []
    m_connectionPoints:
    - {x: -2, y: 4}
    - {x: 202, y: 4}
    m_direction: 1
    m_canBeDeleted: 0
    m_canBeReordered: 0
    m_curveModifier: 0
    m_height: 24
    m_width: 216
    m_x: 0
    m_y: 62
    m_id: 73258517-b368-4d67-8aea-52cb7e2ccada
    m_nodeId: bb246f8a-bae4-44ab-9d7b-2e8c9e441113
    m_socketName: OutputSocket_0
    m_value: '{}'
    m_valueTypeQualifiedName: Doozy.Engine.Nody.Connections.PassthroughConnection,
      Assembly-CSharp, Version=0.0.0.0, Culture=neutral, PublicKeyToken=null
  m_nodeType: 4
  m_allowDuplicateNodeName: 1
  m_allowEmptyNodeName: 1
  m_canBeDeleted: 1
  m_debugMode: 0
  m_useFixedUpdate: 0
  m_useLateUpdate: 0
  m_useUpdate: 0
  m_height: 156
  m_width: 216
  m_x: -48
  m_y: 540
  m_minimumInputSocketsCount: 1
  m_minimumOutputSocketsCount: 1
  m_graphId: 386b2cfa-61b2-472e-9a0f-47db15394f27
  m_id: bb246f8a-bae4-44ab-9d7b-2e8c9e441113
  m_name: Theme Node
  m_notes: 
  ThemeIdSerializedGuid: 4970eed67e2b864e9e16a851bb1066cb
  VariantIdSerializedGuid: 2d1e0ec77c20cf4385b0fdb8a008df5c
--- !u!114 &-1611392919837089146
MonoBehaviour:
  m_ObjectHideFlags: 1
  m_CorrespondingSourceObject: {fileID: 0}
  m_PrefabInstance: {fileID: 0}
  m_PrefabAsset: {fileID: 0}
  m_GameObject: {fileID: 0}
  m_Enabled: 1
  m_EditorHideFlags: 0
  m_Script: {fileID: 11500000, guid: ea08aeacce5dcd746b2f00e10a995b72, type: 3}
  m_Name: PortalNode
  m_EditorClassIdentifier: 
  ErrorNodeNameIsEmpty: 0
  ErrorDuplicateNameFoundInGraph: 0
  m_inputSockets: []
  m_outputSockets:
  - m_connectionMode: 0
    m_connections:
    - m_inputConnectionPoint: {x: 202, y: 4}
      m_outputConnectionPoint: {x: -2, y: 4}
      m_id: a303202e-1005-463e-be7e-513c8f5b9170
      m_inputNodeId: bb246f8a-bae4-44ab-9d7b-2e8c9e441113
      m_inputSocketId: 70e6d2ea-7a5d-41b6-b037-4d5ce76d24e4
      m_outputNodeId: 59514237-8cf3-42fc-a42b-ecb2270524c2
      m_outputSocketId: 2aa72366-1597-439d-bf81-1e4a656e04a6
    m_connectionPoints:
    - {x: -2, y: 4}
    - {x: 202, y: 4}
    m_direction: 1
    m_canBeDeleted: 0
    m_canBeReordered: 0
    m_curveModifier: 0
    m_height: 24
    m_width: 216
    m_x: 0
    m_y: 38
    m_id: 2aa72366-1597-439d-bf81-1e4a656e04a6
    m_nodeId: 59514237-8cf3-42fc-a42b-ecb2270524c2
    m_socketName: OutputSocket_0
    m_value: '{}'
    m_valueTypeQualifiedName: Doozy.Engine.Nody.Connections.PassthroughConnection,
      Assembly-CSharp, Version=0.0.0.0, Culture=neutral, PublicKeyToken=null
  m_nodeType: 5
  m_allowDuplicateNodeName: 0
  m_allowEmptyNodeName: 0
  m_canBeDeleted: 1
  m_debugMode: 0
  m_useFixedUpdate: 0
  m_useLateUpdate: 0
  m_useUpdate: 0
  m_height: 132
  m_width: 216
  m_x: 288
  m_y: 540
  m_minimumInputSocketsCount: 1
  m_minimumOutputSocketsCount: 1
  m_graphId: 386b2cfa-61b2-472e-9a0f-47db15394f27
  m_id: 59514237-8cf3-42fc-a42b-ecb2270524c2
  m_name: 3 GameEvent
  m_notes: 
  ErrorNotListeningForAnyGameEvent: 0
  m_gameEvent: 3
  ListenFor: 0
  AnyValue: 0
  UIViewTriggerAction: 1
  ViewCategory: General
  ViewName: Unnamed
  UIButtonTriggerAction: 0
  ButtonCategory: General
  ButtonName: Unnamed
  UIDrawerTriggerAction: 0
  DrawerName: Unnamed
  CustomDrawerName: 0
  SwitchBackMode: 0
--- !u!114 &11400000
MonoBehaviour:
  m_ObjectHideFlags: 0
  m_CorrespondingSourceObject: {fileID: 0}
  m_PrefabInstance: {fileID: 0}
  m_PrefabAsset: {fileID: 0}
  m_GameObject: {fileID: 0}
  m_Enabled: 1
  m_EditorHideFlags: 0
  m_Script: {fileID: 11500000, guid: e021c5c27274514469ad2992883d55db, type: 3}
  m_Name: ThemeChanger
  m_EditorClassIdentifier: 
  DebugMode: 0
  m_nodes:
  - {fileID: -8149789301473438807}
  - {fileID: -6854074222688119880}
  - {fileID: -6174307195788869077}
  - {fileID: 5812068859854454762}
  - {fileID: -3587496813375270074}
  - {fileID: -1611392919837089146}
  - {fileID: 8347771827632833049}
  - {fileID: 7737301095360364684}
  - {fileID: 5665881469517082758}
  - {fileID: 2200816645194256144}
  - {fileID: 7715127468461344886}
  m_isSubGraph: 0
  m_version: 1
  m_description: 
  m_id: 386b2cfa-61b2-472e-9a0f-47db15394f27
  m_lastModified: 132610172524514702
--- !u!114 &2200816645194256144
MonoBehaviour:
  m_ObjectHideFlags: 1
  m_CorrespondingSourceObject: {fileID: 0}
  m_PrefabInstance: {fileID: 0}
  m_PrefabAsset: {fileID: 0}
  m_GameObject: {fileID: 0}
  m_Enabled: 1
  m_EditorHideFlags: 0
  m_Script: {fileID: 11500000, guid: ea08aeacce5dcd746b2f00e10a995b72, type: 3}
  m_Name: PortalNode
  m_EditorClassIdentifier: 
  ErrorNodeNameIsEmpty: 0
  ErrorDuplicateNameFoundInGraph: 0
  m_inputSockets: []
  m_outputSockets:
  - m_connectionMode: 0
    m_connections:
    - m_inputConnectionPoint: {x: 202, y: 4}
      m_outputConnectionPoint: {x: -2, y: 4}
      m_id: a23360c9-b6bd-4f13-ad74-bdfff29c9e5c
      m_inputNodeId: d575514f-c01a-4f5e-99b9-ed8bc4b7e002
      m_inputSocketId: c28f92d2-a5be-42c0-afbf-2c1e71a04e9f
      m_outputNodeId: 4a7fcbbc-5610-4b05-aa02-6cd939de7a48
      m_outputSocketId: 3390b41e-b220-401a-ab7e-32c5e2bb744b
    m_connectionPoints:
    - {x: -2, y: 4}
    - {x: 202, y: 4}
    m_direction: 1
    m_canBeDeleted: 0
    m_canBeReordered: 0
    m_curveModifier: 0
    m_height: 24
    m_width: 216
    m_x: 0
    m_y: 38
    m_id: 3390b41e-b220-401a-ab7e-32c5e2bb744b
    m_nodeId: 4a7fcbbc-5610-4b05-aa02-6cd939de7a48
    m_socketName: OutputSocket_0
    m_value: '{}'
    m_valueTypeQualifiedName: Doozy.Engine.Nody.Connections.PassthroughConnection,
      Assembly-CSharp, Version=0.0.0.0, Culture=neutral, PublicKeyToken=null
  m_nodeType: 5
  m_allowDuplicateNodeName: 0
  m_allowEmptyNodeName: 0
  m_canBeDeleted: 1
  m_debugMode: 0
  m_useFixedUpdate: 0
  m_useLateUpdate: 0
  m_useUpdate: 0
  m_height: 132
  m_width: 216
  m_x: 288
  m_y: 192
  m_minimumInputSocketsCount: 1
  m_minimumOutputSocketsCount: 1
  m_graphId: 386b2cfa-61b2-472e-9a0f-47db15394f27
  m_id: 4a7fcbbc-5610-4b05-aa02-6cd939de7a48
  m_name: 1 GameEvent
  m_notes: 
  ErrorNotListeningForAnyGameEvent: 0
  m_gameEvent: 1
  ListenFor: 0
  AnyValue: 0
  UIViewTriggerAction: 1
  ViewCategory: General
  ViewName: Unnamed
  UIButtonTriggerAction: 0
  ButtonCategory: General
  ButtonName: Unnamed
  UIDrawerTriggerAction: 0
  DrawerName: Unnamed
  CustomDrawerName: 0
  SwitchBackMode: 0
--- !u!114 &5665881469517082758
MonoBehaviour:
  m_ObjectHideFlags: 1
  m_CorrespondingSourceObject: {fileID: 0}
  m_PrefabInstance: {fileID: 0}
  m_PrefabAsset: {fileID: 0}
  m_GameObject: {fileID: 0}
  m_Enabled: 1
  m_EditorHideFlags: 0
  m_Script: {fileID: 11500000, guid: d57ed238b12b4e09aba0c83117a55de7, type: 3}
  m_Name: StartNode
  m_EditorClassIdentifier: 
  ErrorNodeNameIsEmpty: 0
  ErrorDuplicateNameFoundInGraph: 0
  m_inputSockets: []
  m_outputSockets:
  - m_connectionMode: 0
    m_connections: []
    m_connectionPoints:
    - {x: -2, y: 4}
    - {x: 106, y: 4}
    m_direction: 1
    m_canBeDeleted: 0
    m_canBeReordered: 0
    m_curveModifier: 0
    m_height: 24
    m_width: 120
    m_x: 0
    m_y: 38
    m_id: 3d63a46b-91dd-4751-862f-1ceae7248dae
    m_nodeId: d61e2e8e-15e4-4684-8e61-9da26d941015
    m_socketName: OutputSocket_0
    m_value: '{"ButtonCategory":"General","ButtonName":"Unnamed","GameEvent":"","TimeDelay":3.0,"Trigger":0}'
    m_valueTypeQualifiedName: Doozy.Engine.UI.Connections.UIConnection, Assembly-CSharp,
      Version=0.0.0.0, Culture=neutral, PublicKeyToken=null
  m_nodeType: 0
  m_allowDuplicateNodeName: 0
  m_allowEmptyNodeName: 0
  m_canBeDeleted: 0
  m_debugMode: 0
  m_useFixedUpdate: 0
  m_useLateUpdate: 0
  m_useUpdate: 0
  m_height: 80
  m_width: 120
  m_x: -60
  m_y: -16
  m_minimumInputSocketsCount: 1
  m_minimumOutputSocketsCount: 1
  m_graphId: 386b2cfa-61b2-472e-9a0f-47db15394f27
  m_id: d61e2e8e-15e4-4684-8e61-9da26d941015
  m_name: Start
  m_notes: 
  ErrorNodeIsNotConnected: 1
--- !u!114 &5812068859854454762
MonoBehaviour:
  m_ObjectHideFlags: 1
  m_CorrespondingSourceObject: {fileID: 0}
  m_PrefabInstance: {fileID: 0}
  m_PrefabAsset: {fileID: 0}
  m_GameObject: {fileID: 0}
  m_Enabled: 1
  m_EditorHideFlags: 0
  m_Script: {fileID: 11500000, guid: ea08aeacce5dcd746b2f00e10a995b72, type: 3}
  m_Name: PortalNode
  m_EditorClassIdentifier: 
  ErrorNodeNameIsEmpty: 0
  ErrorDuplicateNameFoundInGraph: 0
  m_inputSockets: []
  m_outputSockets:
  - m_connectionMode: 0
    m_connections:
    - m_inputConnectionPoint: {x: 202, y: 4}
      m_outputConnectionPoint: {x: -2, y: 4}
      m_id: 8e427989-0014-4c04-a994-a14d9af4d65a
      m_inputNodeId: 7229f657-6244-453a-96fd-b4fe4e30d217
      m_inputSocketId: 876c26a2-8b28-411c-ae5e-35984b4580a9
      m_outputNodeId: 4628b93f-a238-4557-9b9d-173ce6be1b46
      m_outputSocketId: f4400e09-73e4-4830-8056-5a3479d5ce18
    m_connectionPoints:
    - {x: -2, y: 4}
    - {x: 202, y: 4}
    m_direction: 1
    m_canBeDeleted: 0
    m_canBeReordered: 0
    m_curveModifier: 0
    m_height: 24
    m_width: 216
    m_x: 0
    m_y: 38
    m_id: f4400e09-73e4-4830-8056-5a3479d5ce18
    m_nodeId: 4628b93f-a238-4557-9b9d-173ce6be1b46
    m_socketName: OutputSocket_0
    m_value: '{}'
    m_valueTypeQualifiedName: Doozy.Engine.Nody.Connections.PassthroughConnection,
      Assembly-CSharp, Version=0.0.0.0, Culture=neutral, PublicKeyToken=null
  m_nodeType: 5
  m_allowDuplicateNodeName: 0
  m_allowEmptyNodeName: 0
  m_canBeDeleted: 1
  m_debugMode: 0
  m_useFixedUpdate: 0
  m_useLateUpdate: 0
  m_useUpdate: 0
  m_height: 132
  m_width: 216
  m_x: 288
  m_y: 720
  m_minimumInputSocketsCount: 1
  m_minimumOutputSocketsCount: 1
  m_graphId: 386b2cfa-61b2-472e-9a0f-47db15394f27
  m_id: 4628b93f-a238-4557-9b9d-173ce6be1b46
  m_name: 4 GameEvent
  m_notes: 
  ErrorNotListeningForAnyGameEvent: 0
  m_gameEvent: 4
  ListenFor: 0
  AnyValue: 0
  UIViewTriggerAction: 1
  ViewCategory: General
  ViewName: Unnamed
  UIButtonTriggerAction: 0
  ButtonCategory: General
  ButtonName: Unnamed
  UIDrawerTriggerAction: 0
  DrawerName: Unnamed
  CustomDrawerName: 0
  SwitchBackMode: 0
--- !u!114 &7715127468461344886
MonoBehaviour:
  m_ObjectHideFlags: 1
  m_CorrespondingSourceObject: {fileID: 0}
  m_PrefabInstance: {fileID: 0}
  m_PrefabAsset: {fileID: 0}
  m_GameObject: {fileID: 0}
  m_Enabled: 1
  m_EditorHideFlags: 0
  m_Script: {fileID: 11500000, guid: adcbb2b023fd42a7837155ef625ceea3, type: 3}
  m_Name: ThemeNode
  m_EditorClassIdentifier: 
  ErrorNodeNameIsEmpty: 0
  ErrorDuplicateNameFoundInGraph: 0
  m_inputSockets:
  - m_connectionMode: 1
    m_connections:
    - m_inputConnectionPoint: {x: 202, y: 4}
      m_outputConnectionPoint: {x: -2, y: 4}
      m_id: a23360c9-b6bd-4f13-ad74-bdfff29c9e5c
      m_inputNodeId: d575514f-c01a-4f5e-99b9-ed8bc4b7e002
      m_inputSocketId: c28f92d2-a5be-42c0-afbf-2c1e71a04e9f
      m_outputNodeId: 4a7fcbbc-5610-4b05-aa02-6cd939de7a48
      m_outputSocketId: 3390b41e-b220-401a-ab7e-32c5e2bb744b
    m_connectionPoints:
    - {x: -2, y: 4}
    - {x: 202, y: 4}
    m_direction: 0
    m_canBeDeleted: 0
    m_canBeReordered: 0
    m_curveModifier: 0
    m_height: 24
    m_width: 216
    m_x: 0
    m_y: 38
    m_id: c28f92d2-a5be-42c0-afbf-2c1e71a04e9f
    m_nodeId: d575514f-c01a-4f5e-99b9-ed8bc4b7e002
    m_socketName: InputSocket_0
    m_value: '{}'
    m_valueTypeQualifiedName: Doozy.Engine.Nody.Connections.PassthroughConnection,
      Assembly-CSharp, Version=0.0.0.0, Culture=neutral, PublicKeyToken=null
  m_outputSockets:
  - m_connectionMode: 0
    m_connections: []
    m_connectionPoints:
    - {x: -2, y: 4}
    - {x: 202, y: 4}
    m_direction: 1
    m_canBeDeleted: 0
    m_canBeReordered: 0
    m_curveModifier: 0
    m_height: 24
    m_width: 216
    m_x: 0
    m_y: 62
    m_id: 4c22569e-20c1-450b-b3a3-6429bc920fbd
    m_nodeId: d575514f-c01a-4f5e-99b9-ed8bc4b7e002
    m_socketName: OutputSocket_0
    m_value: '{}'
    m_valueTypeQualifiedName: Doozy.Engine.Nody.Connections.PassthroughConnection,
      Assembly-CSharp, Version=0.0.0.0, Culture=neutral, PublicKeyToken=null
  m_nodeType: 4
  m_allowDuplicateNodeName: 1
  m_allowEmptyNodeName: 1
  m_canBeDeleted: 1
  m_debugMode: 0
  m_useFixedUpdate: 0
  m_useLateUpdate: 0
  m_useUpdate: 0
  m_height: 156
  m_width: 216
  m_x: -51.333336
  m_y: 188.49995
  m_minimumInputSocketsCount: 1
  m_minimumOutputSocketsCount: 1
  m_graphId: 386b2cfa-61b2-472e-9a0f-47db15394f27
  m_id: d575514f-c01a-4f5e-99b9-ed8bc4b7e002
  m_name: Theme Node
  m_notes: 
  ThemeIdSerializedGuid: 4970eed67e2b864e9e16a851bb1066cb
  VariantIdSerializedGuid: 521b72fe6642c249a1de7912087d7763
--- !u!114 &7737301095360364684
MonoBehaviour:
  m_ObjectHideFlags: 1
  m_CorrespondingSourceObject: {fileID: 0}
  m_PrefabInstance: {fileID: 0}
  m_PrefabAsset: {fileID: 0}
  m_GameObject: {fileID: 0}
  m_Enabled: 1
  m_EditorHideFlags: 0
  m_Script: {fileID: 11500000, guid: ea08aeacce5dcd746b2f00e10a995b72, type: 3}
  m_Name: PortalNode
  m_EditorClassIdentifier: 
  ErrorNodeNameIsEmpty: 0
  ErrorDuplicateNameFoundInGraph: 0
  m_inputSockets: []
  m_outputSockets:
  - m_connectionMode: 0
    m_connections:
    - m_inputConnectionPoint: {x: 202, y: 4}
      m_outputConnectionPoint: {x: -2, y: 4}
      m_id: 6777a925-cf80-4028-a44c-1aafc46c0b96
      m_inputNodeId: a7d6087e-85dd-43b0-949e-87b9951de1b9
      m_inputSocketId: c51bf493-0673-4168-8530-b38346495490
      m_outputNodeId: 3bfa373a-4f4c-4d9d-84ed-6a208b7818d9
      m_outputSocketId: dfcb501a-9a4f-4f7a-ba1e-2ff182e18ac0
    m_connectionPoints:
    - {x: -2, y: 4}
    - {x: 202, y: 4}
    m_direction: 1
    m_canBeDeleted: 0
    m_canBeReordered: 0
    m_curveModifier: 0
    m_height: 24
    m_width: 216
    m_x: 0
    m_y: 38
    m_id: dfcb501a-9a4f-4f7a-ba1e-2ff182e18ac0
    m_nodeId: 3bfa373a-4f4c-4d9d-84ed-6a208b7818d9
    m_socketName: OutputSocket_0
    m_value: '{}'
    m_valueTypeQualifiedName: Doozy.Engine.Nody.Connections.PassthroughConnection,
      Assembly-CSharp, Version=0.0.0.0, Culture=neutral, PublicKeyToken=null
  m_nodeType: 5
  m_allowDuplicateNodeName: 0
  m_allowEmptyNodeName: 0
  m_canBeDeleted: 1
  m_debugMode: 0
  m_useFixedUpdate: 0
  m_useLateUpdate: 0
  m_useUpdate: 0
  m_height: 132
  m_width: 216
  m_x: 288
  m_y: 360
  m_minimumInputSocketsCount: 1
  m_minimumOutputSocketsCount: 1
  m_graphId: 386b2cfa-61b2-472e-9a0f-47db15394f27
  m_id: 3bfa373a-4f4c-4d9d-84ed-6a208b7818d9
  m_name: 2 GameEvent
  m_notes: 
  ErrorNotListeningForAnyGameEvent: 0
  m_gameEvent: 2
  ListenFor: 0
  AnyValue: 0
  UIViewTriggerAction: 1
  ViewCategory: General
  ViewName: Unnamed
  UIButtonTriggerAction: 0
  ButtonCategory: General
  ButtonName: Unnamed
  UIDrawerTriggerAction: 0
  DrawerName: Unnamed
  CustomDrawerName: 0
  SwitchBackMode: 0
--- !u!114 &8347771827632833049
MonoBehaviour:
  m_ObjectHideFlags: 1
  m_CorrespondingSourceObject: {fileID: 0}
  m_PrefabInstance: {fileID: 0}
  m_PrefabAsset: {fileID: 0}
  m_GameObject: {fileID: 0}
  m_Enabled: 1
  m_EditorHideFlags: 0
  m_Script: {fileID: 11500000, guid: adcbb2b023fd42a7837155ef625ceea3, type: 3}
  m_Name: ThemeNode
  m_EditorClassIdentifier: 
  ErrorNodeNameIsEmpty: 0
  ErrorDuplicateNameFoundInGraph: 0
  m_inputSockets:
  - m_connectionMode: 1
    m_connections:
    - m_inputConnectionPoint: {x: 202, y: 4}
      m_outputConnectionPoint: {x: -2, y: 4}
      m_id: 6777a925-cf80-4028-a44c-1aafc46c0b96
      m_inputNodeId: a7d6087e-85dd-43b0-949e-87b9951de1b9
      m_inputSocketId: c51bf493-0673-4168-8530-b38346495490
      m_outputNodeId: 3bfa373a-4f4c-4d9d-84ed-6a208b7818d9
      m_outputSocketId: dfcb501a-9a4f-4f7a-ba1e-2ff182e18ac0
    m_connectionPoints:
    - {x: -2, y: 4}
    - {x: 202, y: 4}
    m_direction: 0
    m_canBeDeleted: 0
    m_canBeReordered: 0
    m_curveModifier: 0
    m_height: 24
    m_width: 216
    m_x: 0
    m_y: 38
    m_id: c51bf493-0673-4168-8530-b38346495490
    m_nodeId: a7d6087e-85dd-43b0-949e-87b9951de1b9
    m_socketName: InputSocket_0
    m_value: '{}'
    m_valueTypeQualifiedName: Doozy.Engine.Nody.Connections.PassthroughConnection,
      Assembly-CSharp, Version=0.0.0.0, Culture=neutral, PublicKeyToken=null
  m_outputSockets:
  - m_connectionMode: 0
    m_connections: []
    m_connectionPoints:
    - {x: -2, y: 4}
    - {x: 202, y: 4}
    m_direction: 1
    m_canBeDeleted: 0
    m_canBeReordered: 0
    m_curveModifier: 0
    m_height: 24
    m_width: 216
    m_x: 0
    m_y: 62
    m_id: 68637f08-92a2-40c1-bb33-64d2f44e265c
    m_nodeId: a7d6087e-85dd-43b0-949e-87b9951de1b9
    m_socketName: OutputSocket_0
    m_value: '{}'
    m_valueTypeQualifiedName: Doozy.Engine.Nody.Connections.PassthroughConnection,
      Assembly-CSharp, Version=0.0.0.0, Culture=neutral, PublicKeyToken=null
  m_nodeType: 4
  m_allowDuplicateNodeName: 1
  m_allowEmptyNodeName: 1
  m_canBeDeleted: 1
  m_debugMode: 0
  m_useFixedUpdate: 0
  m_useLateUpdate: 0
  m_useUpdate: 0
  m_height: 156
  m_width: 216
  m_x: -48
  m_y: 360
  m_minimumInputSocketsCount: 1
  m_minimumOutputSocketsCount: 1
  m_graphId: 386b2cfa-61b2-472e-9a0f-47db15394f27
  m_id: a7d6087e-85dd-43b0-949e-87b9951de1b9
  m_name: Theme Node
  m_notes: 
  ThemeIdSerializedGuid: 4970eed67e2b864e9e16a851bb1066cb
  VariantIdSerializedGuid: 57fb0606323e8542bf0c11b19561dbe8
