%YAML 1.1
%TAG !u! tag:unity3d.com,2011:
--- !u!1045 &1
EditorBuildSettings:
  m_ObjectHideFlags: 0
  serializedVersion: 2
  m_Scenes:
  - enabled: 1
    path: Assets/Scenes/Loading.unity
    guid: a9f65d21c656a6e408b14bcc0c069c91
  - enabled: 1
    path: Assets/Scenes/Initialization.unity
    guid: f6a99ec4b4b69674e814b8437d14b9dc
  - enabled: 1
    path: Assets/Scenes/MainMenu.unity
    guid: 85859cfae6bb0cf4f9c9acec3587ce88
  - enabled: 1
    path: Assets/Scenes/CoreGameplay.unity
    guid: a5eeadaaf35e3d145adcead5c32b9dec
  m_configObjects: {}
